Time Now: 20170704 07:44.55
26 tickers loaded
Download failed. Retrying in 60 sec...
Download failed. Retrying in 60 sec...
Download failed. Retrying in 60 sec...
Download failed. Retrying in 60 sec...
Download failed. Retrying in 60 sec...
Download failed. Retrying in 60 sec...
Download failed. Retrying in 60 sec...
Download failed. Retrying in 60 sec...
Download failed. Retrying in 60 sec...
Download failed. Retrying in 60 sec...
Download failed. Retrying in 60 sec...
Download failed. Retrying in 60 sec...
Download failed. Retrying in 60 sec...
Download failed. Retrying in 60 sec...
Download failed. Retrying in 60 sec...
Download failed. Retrying in 60 sec...
Download failed. Retrying in 60 sec...
Download failed. Retrying in 60 sec...
Download failed. Retrying in 60 sec...
Download failed. Retrying in 60 sec...
Download failed. Retrying in 60 sec...
Download failed. Retrying in 60 sec...
Download failed. Retrying in 60 sec...
Download failed. Retrying in 60 sec...
Download failed. Retrying in 60 sec...
Download failed. Retrying in 60 sec...
Download failed. Retrying in 60 sec...
Download failed. Retrying in 60 sec...
Download failed. Retrying in 60 sec...
Download failed. Retrying in 60 sec...
Download failed. Retrying in 60 sec...
Download failed. Retrying in 60 sec...
Download failed. Retrying in 60 sec...
Download failed. Retrying in 60 sec...
Download failed. Retrying in 60 sec...
Download failed. Retrying in 60 sec...
Download failed. Retrying in 60 sec...
Download failed. Retrying in 60 sec...
Download failed. Retrying in 60 sec...
Download failed. Retrying in 60 sec...
Download failed. Retrying in 60 sec...
Download failed. Retrying in 60 sec...
Download failed. Retrying in 60 sec...
Download failed. Retrying in 60 sec...
Download failed. Retrying in 60 sec...
Download failed. Retrying in 60 sec...
Download failed. Retrying in 60 sec...
Download failed. Retrying in 60 sec...
Download failed. Retrying in 60 sec...
Download failed. Retrying in 60 sec...
Download failed. Retrying in 60 sec...
Download failed. Retrying in 60 sec...
Download failed. Retrying in 60 sec...


Starting status check...
Ticker     Name                          Last           STDMov    Hist Perf      Beta           PE Ratio  
^STI       Straits Times Index           3209.47        -0.495    nan/nan        1.0            None      
^KLSE      FTSE Bursa Malaysia           1779.45        -0.422    nan/nan        1.0            None      
^GSPC      S&P 500 Index                 2439.07        0.23      nan/nan        1.0            None      
Q01.SI     QAF                           1.325          -0.203    -0.75/-0.43    0.209          6.306     
AGS.SI     TheHourGlass                  0.66           -0.753    -1.5/-0.9      0.236          9.565     
AXL        American Axle                 14.97          -0.405     1.08/ 0.74    -0.401         4.568     
CALM       Cal-Maine Foods               38.2           -0.135     0.78/ 0.54    -0.463         None      
D05.SI     DBS Bank                      20.35          -0.085     0.16/ 0.14    1.212          12.184    
O39.SI     OCBC Bank                     10.66          0.095      0.66/ 0.35    1.116          12.597    
U11.SI     UOB Bank                      22.92          -0.29      0.39/ 0.17    1.14           12.326    
RW0U.SI    Mapletree G China             1.09           -0.246     0.41/ 0.18    0.519          8.135     
D5IU.SI    Lippo Malls                   0.43           0.351      0.71/ 0.34    0.379          39.091    
ES3.SI     Straits Times ETF             3.25           -0.336    -0.35/-0.27    0.87           None      
500.SI     Tai Sin Electric              0.435          0.0        0.62/ 0.39    0.445          7.632     
573.SI     Challenger Techonologies      0.46           0.677     -0.46/-0.34    -0.366         13.529    
C6L.SI     SIA                           9.96           0.092      0.19/ 0.22    0.587          32.876    
E5H.SI     Golden Agri                   0.375          0.436      1.11/ 0.5     1.062          13.885    
J91U.SI    Cambridge Industrial Trust    0.585          -0.568    -0.37/-0.2     0.333          117.0     
O23.SI     OSIM Intl                     1.39           0.0       nan/nan        0.0            None      
1163.KL    Allianz Malaysia              12.88          0.265      0.07/ 0.19    0.677          14.434    
C          Citigroup                     63.78          -0.182    -0.3/-0.13     1.785          12.975    
BAC        Bank of America               22.89          -0.729    -0.92/-0.44    1.866          14.216    
XOM        ExxonMobil                    81.24          -1.374    -1.65/-0.81    0.701          33.815    
CVX        Chevron Corp                  104.14         -0.956    -2.25/-1.09    0.478          67.755    
Z74.SI     Singapore Telecomms           3.79           0.215     -0.18/-0.14    0.508          15.854    
3395.KL    Berjaya Corporation Berhad    0.345          -0.619    -0.41/-0.17    0.265          None      


Recommendation
===============
American Axle Check. Day Delta:-5.6% (3.0%) 
ExxonMobil Check. Hist Perf:-1.65 (-2.7%) 
Chevron Corp Check. Hist Perf:-2.25 (-3.9%) 

Time Finished: 20170704 08:44.05Time Now: 20170704 19:41.36
26 tickers loaded
Download failed. Retrying in 60 sec...
Download failed. Retrying in 60 sec...
Download failed. Retrying in 60 sec...
Download failed. Retrying in 60 sec...
Download failed. Retrying in 60 sec...
Download failed. Retrying in 60 sec...
Download failed. Retrying in 60 sec...
Download failed. Retrying in 60 sec...
Download failed. Retrying in 60 sec...
Download failed. Retrying in 60 sec...
Download failed. Retrying in 60 sec...
Download failed. Retrying in 60 sec...
Download failed. Retrying in 60 sec...
Download failed. Retrying in 60 sec...
Download failed. Retrying in 60 sec...
Download failed. Retrying in 60 sec...
Download failed. Retrying in 60 sec...
Download failed. Retrying in 60 sec...
Download failed. Retrying in 60 sec...
Download failed. Retrying in 60 sec...
Download failed. Retrying in 60 sec...
Download failed. Retrying in 60 sec...
Download failed. Retrying in 60 sec...
Download failed. Retrying in 60 sec...
Download failed. Retrying in 60 sec...
Download failed. Retrying in 60 sec...
Download failed. Retrying in 60 sec...
Download failed. Retrying in 60 sec...
Download failed. Retrying in 60 sec...
Download failed. Retrying in 60 sec...
Download failed. Retrying in 60 sec...
Download failed. Retrying in 60 sec...
Download failed. Retrying in 60 sec...
Download failed. Retrying in 60 sec...
Download failed. Retrying in 60 sec...
Download failed. Retrying in 60 sec...
Download failed. Retrying in 60 sec...
Download failed. Retrying in 60 sec...
Download failed. Retrying in 60 sec...
Download failed. Retrying in 60 sec...
Download failed. Retrying in 60 sec...
Download failed. Retrying in 60 sec...
Download failed. Retrying in 60 sec...
Download failed. Retrying in 60 sec...
Download failed. Retrying in 60 sec...
Download failed. Retrying in 60 sec...
Download failed. Retrying in 60 sec...
Download failed. Retrying in 60 sec...
Download failed. Retrying in 60 sec...
Download failed. Retrying in 60 sec...
Download failed. Retrying in 60 sec...
Download failed. Retrying in 60 sec...
Download failed. Retrying in 60 sec...


Starting status check...
Ticker     Name                          Last           STDMov    Hist Perf      Beta           PE Ratio  
^STI       Straits Times Index           3209.18        -0.501    nan/nan        1.0            None      
^KLSE      FTSE Bursa Malaysia           1762.08        -1.117    nan/nan        1.0            None      
^GSPC      S&P 500 Index                 2429.01        -0.12     nan/nan        1.0            None      
Q01.SI     QAF                           1.255          -3.042    -2.61/-1.38    0.209          5.973     
AGS.SI     TheHourGlass                  0.675          0.377     -0.72/-0.38    0.236          9.782     
AXL        American Axle                 15.89          0.014      3.32/ 2.32    -0.401         4.849     
CALM       Cal-Maine Foods               39.35          0.037      1.73/ 1.26    -0.463         None      
D05.SI     DBS Bank                      20.69          0.397      0.99/ 0.5     1.212          12.388    
O39.SI     OCBC Bank                     10.61          -0.024     0.34/ 0.19    1.116          12.538    
U11.SI     UOB Bank                      22.9           -0.315     0.34/ 0.15    1.14           12.316    
RW0U.SI    Mapletree G China             1.085          -0.368     0.18/ 0.07    0.519          8.098     
D5IU.SI    Lippo Malls                   0.44           1.054      1.88/ 0.99    0.379          40.0      
ES3.SI     Straits Times ETF             3.26           -0.168    -0.01/ 0.04    0.87           None      
500.SI     Tai Sin Electric              0.435          0.0        0.62/ 0.39    0.445          7.632     
573.SI     Challenger Techonologies      0.46           0.677     -0.46/-0.34    -0.366         13.529    
C6L.SI     SIA                           10.05          0.503      0.79/ 0.59    0.587          33.173    
E5H.SI     Golden Agri                   0.375          0.436      1.11/ 0.5     1.062          13.885    
J91U.SI    Cambridge Industrial Trust    0.605          1.703      1.66/ 0.89    0.333          121.0     
O23.SI     OSIM Intl                     1.39           0.0       nan/nan        0.0            None      
1163.KL    Allianz Malaysia              13.0           0.529      0.93/ 0.87    0.677          14.569    
C          Citigroup                     68.26          2.366      3.5/ 1.62     1.785          13.886    
BAC        Bank of America               24.68          1.279      1.89/ 0.86    1.866          15.328    
XOM        ExxonMobil                    82.1           -0.216    -0.89/-0.47    0.701          34.173    
CVX        Chevron Corp                  106.3          -0.013    -1.02/-0.48    0.478          69.16     
Z74.SI     Singapore Telecomms           3.89           1.29       1.11/ 0.79    0.508          16.272    
3395.KL    Berjaya Corporation Berhad    0.34           -0.928    -0.8/-0.29     0.265          None      


Recommendation
===============
FTSE Bursa Malaysia Check. Day Delta:-1.6% (1.5%) 
QAF Check. Day Delta:-5.6% (3.0%) 
QAF Check. Day STD:-3.04 (-7.5%) 
QAF Check. Hist Perf:-2.61 (-7.4%) 
American Axle Check. Hist Perf:3.32 (9.2%) 
Cal-Maine Foods Check. Hist Perf:1.73 (5.4%) 
Lippo Malls Check. Day Delta:3.5% (3.0%) 
Lippo Malls Check. Hist Perf:1.88 (3.5%) 
Cambridge Industrial Trust Check. Day STD:1.7 (1.5%) 
Cambridge Industrial Trust Check. Hist Perf:1.66 (2.5%) 
Citigroup Check. Day Delta:6.5% (5.0%) 
Citigroup Check. Day STD:2.37 (416.0%) 
Citigroup Check. Hist Perf:3.5 (6.8%) 
Bank of America Check. Hist Perf:1.89 (5.3%) 
Singapore Telecomms Check. Day Delta:3.2% (3.0%) 
Berjaya Corporation Berhad Check. Day Delta:-4.2% (3.0%) 

Time Finished: 20170704 20:41.04